example4_protein_concentration_determination.utf8
…
BCA_assay_data

## # A tibble: 86 x 14
##    `Plate ID` `Well ` `Sample ID` `User ID` `Date ` `Time ` `conc. ` `units `
##    <chr>      <chr>   <chr>       <chr>     <chr>   <time>     <dbl> <chr>   
##  1 microBCA_… A1      SMM_contro… A. Reder  9/12/2… 16:06     NA     mg/ml   
##  2 microBCA_… B1      SMM_contro… A. Reder  9/12/2… 16:06     NA     mg/ml   
##  3 microBCA_… C1      SMM_contro… A. Reder  9/12/2… 16:06     NA     mg/ml   
##  4 microBCA_… D1      SMM_EtOH_t… A. Reder  9/12/2… 16:06     NA     mg/ml   
##  5 microBCA_… E1      SMM_EtOH_t… A. Reder  9/12/2… 16:06      0.166 mg/ml   
##  6 microBCA_… F1      SMM_EtOH_t… A. Reder  9/12/2… 16:06      0.162 mg/ml   
##  7 microBCA_… G1      SMM_EtOH_t… A. Reder  9/12/2… 16:06      0.154 mg/ml   
##  8 microBCA_… H1      SMM_EtOH_t… A. Reder  9/12/2… 16:06      0.143 mg/ml   
##  9 microBCA_… A2      SMM_contro… A. Reder  9/12/2… 16:08     NA     mg/ml   
## 10 microBCA_… B2      SMM_contro… A. Reder  9/12/2… 16:08     NA     mg/ml   
## # … with 76 more rows, and 6 more variables: `nm ` <dbl>, `Abs. ` <dbl>,
## #   `Cursor Pos.` <dbl>, `Cursor abs.` <dbl>, `Norm nm` <dbl>, `Norm Abs` <dbl>
…
#tidy standard curve data
BCA_std_data_tidy <- BCA_std_data %>% gather(colnames(BCA_std_data)[-1],key = "measurements",value = "Abs")
BCA_std_data_tidy

## # A tibble: 32 x 3
##    conc_mg_per_ml measurements   Abs
##             <dbl> <chr>        <dbl>
##  1           0    abs1         0.008
##  2           0.01 abs1         0.053
##  3           0.02 abs1         0.089
##  4           0.04 abs1         0.153
##  5           0.06 abs1         0.209
##  6           0.08 abs1         0.25 
##  7           0.12 abs1         0.347
##  8           0.16 abs1         0.42 
##  9           0    abs2         0.009
## 10           0.01 abs2         0.057
## # … with 22 more rows

summarise assay data

#summarize raw data
BCA_assay_data_summary<- BCA_assay_data %>% 
                          group_by(`Sample ID`) %>% 
                          summarise(meanAbs = mean(`Abs. `),
                                    SD_Abs = sd(`Abs. `),
                                    CV_Abs = sd(`Abs. `)/mean(`Abs. `)) %>% 
  ungroup()
BCA_assay_data_summary

## # A tibble: 39 x 4
##    `Sample ID`     meanAbs  SD_Abs  CV_Abs
##    <chr>             <dbl>   <dbl>   <dbl>
##  1 Comp_control_A    0.421 0.0163  0.0386 
##  2 Comp_control_B    0.397 0.0159  0.0400 
##  3 Comp_control_C    0.366 0.00636 0.0174 
##  4 Comp_OD1.8_A      0.463 0.0170  0.0367 
##  5 Comp_OD1.8_B      0.502 0.00212 0.00423
##  6 Comp_OD1.8_C      0.434 0.0262  0.0602 
##  7 Comp_stat_t60_A   0.363 0.0113  0.0312 
##  8 Comp_stat_t60_B   0.349 0.00424 0.0122 
##  9 Comp_stat_t60_C   0.356 0.0148  0.0417 
## 10 DSM_control_A     0.487 0.0113  0.0232 
## # … with 29 more rows
…
Now we perform the prediction based on the best suited model. We also provide the dilution factor used in our BCA assay for sample dilution. Here we used a 15fold dilution.

dilution_factor = 15 #

#decission based on fit residual std. err.
if(residual_std_err__linear>residual_std_err__loess){
  BCA_assay_data_summary$conc_µg_per_µl <- predict(object = fit_loess,newdata = unlist(BCA_assay_data_summary$meanAbs))*dilution_factor
  }else{
  BCA_assay_data_summary$conc_µg_per_µl <- predict(object = fit_linear,newdata = new <- data.frame(Abs = unlist(BCA_assay_data_summary$meanAbs)))*dilution_factor
  }

BCA_assay_data_summary

## # A tibble: 39 x 5
##    `Sample ID`     meanAbs  SD_Abs  CV_Abs conc_µg_per_µl
##    <chr>             <dbl>   <dbl>   <dbl>          <dbl>
##  1 Comp_control_A    0.421 0.0163  0.0386            2.38
##  2 Comp_control_B    0.397 0.0159  0.0400            2.20
##  3 Comp_control_C    0.366 0.00636 0.0174            1.97
##  4 Comp_OD1.8_A      0.463 0.0170  0.0367            2.71
##  5 Comp_OD1.8_B      0.502 0.00212 0.00423           3.02
##  6 Comp_OD1.8_C      0.434 0.0262  0.0602            2.48
##  7 Comp_stat_t60_A   0.363 0.0113  0.0312            1.95
##  8 Comp_stat_t60_B   0.349 0.00424 0.0122            1.85
##  9 Comp_stat_t60_C   0.356 0.0148  0.0417            1.90
## 10 DSM_control_A     0.487 0.0113  0.0232            2.90
## # … with 29 more rows

Generate a more detailed overview:

adding loess and linear fit estimates

#generate standard detailed
BCA_assay_data_summary_detailed <- BCA_assay_data_summary
BCA_assay_data_summary_detailed$conc_µg_per_µl_LOESS <- predict(object = fit_loess,newdata = unlist(BCA_assay_data_summary$meanAbs))*dilution_factor
BCA_assay_data_summary_detailed$conc_µg_per_µl_LINEAR <- predict(object = fit_linear,newdata = new <- data.frame(Abs = unlist(BCA_assay_data_summary$meanAbs)))*dilution_factor
BCA_assay_data_summary_detailed

## # A tibble: 39 x 7
##    `Sample ID` meanAbs  SD_Abs  CV_Abs conc_µg_per_µl conc_µg_per_µl_…
##    <chr>         <dbl>   <dbl>   <dbl>          <dbl>            <dbl>
##  1 Comp_contr…   0.421 0.0163  0.0386            2.38             2.38
##  2 Comp_contr…   0.397 0.0159  0.0400            2.20             2.20
##  3 Comp_contr…   0.366 0.00636 0.0174            1.97             1.97
##  4 Comp_OD1.8…   0.463 0.0170  0.0367            2.71             2.71
##  5 Comp_OD1.8…   0.502 0.00212 0.00423           3.02             3.02
##  6 Comp_OD1.8…   0.434 0.0262  0.0602            2.48             2.48
##  7 Comp_stat_…   0.363 0.0113  0.0312            1.95             1.95
##  8 Comp_stat_…   0.349 0.00424 0.0122            1.85             1.85
##  9 Comp_stat_…   0.356 0.0148  0.0417            1.90             1.90
## 10 DSM_contro…   0.487 0.0113  0.0232            2.90             2.90
## # … with 29 more rows, and 1 more variable: conc_µg_per_µl_LINEAR <dbl>
…
generate assay plots

Since a assay measurement can be above the standard curve value a higher prediction of values must be performed to span the samples measured in the assay.

#loess long fit
loess_fit_predict <- tibble(Abs = seq(0,max(BCA_assay_data_summary_detailed$meanAbs),length.out = 100))
loess_fit_predict$conc_mg_per_ml <- predict(object = fit_loess,newdata = loess_fit_predict$Abs)
loess_fit_predict

## # A tibble: 100 x 2
##        Abs conc_mg_per_ml
##      <dbl>          <dbl>
##  1 0            -0.00184 
##  2 0.00533      -0.000730
##  3 0.0107        0.000409
##  4 0.0160        0.00158 
##  5 0.0213        0.00277 
##  6 0.0266        0.00399 
##  7 0.0320        0.00523 
##  8 0.0373        0.00650 
##  9 0.0426        0.00780 
## 10 0.0480        0.00912 
## # … with 90 more rows
…
