example1_growth_curves.utf8
…
#generate tidy data
 # gather moves column names into "key" column, gathering the column values into a single "value" column
hg_rpmi_tidy <- tidyr::gather(data = hg_rpmi,colnames(hg_rpmi)[-1],key = "replicates",value = "OD")
st_rpmi_tidy <- tidyr::gather(data = st_rpmi,colnames(st_rpmi)[-1],key = "replicates",value = "OD")
hg_tsb_tidy <- tidyr::gather(data = hg_tsb,colnames(hg_tsb)[-1],key = "replicates",value = "OD")
st_tsb_tidy <- tidyr::gather(data = st_tsb,colnames(st_tsb)[-1],key = "replicates",value = "OD")

# another way of writing that code would be "hg_rpmi %>% gather(colnames(hg_rpmi)[-1],key = "replicates",value = "OD")"
#look at tidy data
hg_rpmi_tidy

## # A tibble: 33 x 3
##    `Zeit (h)` replicates    OD
##         <dbl> <chr>      <dbl>
##  1        0   BR1        0.055
##  2        1   BR1        0.156
##  3        2   BR1        0.38 
##  4        2.3 BR1        0.48 
##  5        3   BR1        0.66 
##  6        4   BR1        0.73 
##  7        5   BR1        0.8  
##  8        6   BR1        0.84 
##  9        7   BR1        0.91 
## 10        8   BR1        0.98 
## # … with 23 more rows
add missing data description

#still missing is the strain and growth media information which is hidden in the file name

#add growth media and strain to tibble
  #"$" will not only select a column, if the column is abscent in the tibble it will create a new column filled with the assigned value
hg_rpmi_tidy$media <- "RPMI";hg_rpmi_tidy$strain <- "HG001"
st_rpmi_tidy$media <- "RPMI";st_rpmi_tidy$strain <- "rho_mutant"
hg_tsb_tidy$media <- "TSB";hg_tsb_tidy$strain <- "HG001"
st_tsb_tidy$media <- "TSB";st_tsb_tidy$strain <- "rho_mutant"

#look at the modified tibble
st_tsb_tidy

## # A tibble: 33 x 5
##    `Zeit (h)` replicates     OD media strain    
##         <dbl> <chr>       <dbl> <chr> <chr>     
##  1        0   BR1ST       0.057 TSB   rho_mutant
##  2        1   BR1ST       0.256 TSB   rho_mutant
##  3        1.3 BR1ST       0.48  TSB   rho_mutant
##  4        2   BR1ST       1.26  TSB   rho_mutant
##  5        3   BR1ST       3.4   TSB   rho_mutant
##  6        4   BR1ST       6.52  TSB   rho_mutant
##  7        5   BR1ST       7.75  TSB   rho_mutant
##  8        6   BR1ST       8.4   TSB   rho_mutant
##  9        7   BR1ST       9.85  TSB   rho_mutant
## 10        8   BR1ST      10.2   TSB   rho_mutant
## # … with 23 more rows
…
#if we want to color for strain and Media the save way is to generate a new column with the combination
growth_tibble <- growth_tibble %>% unite(media,strain,col="media_strain",sep = "_",remove = F)
growth_tibble

## # A tibble: 132 x 6
##    `Zeit (h)` replicates    OD media_strain media strain
##         <dbl> <chr>      <dbl> <chr>        <chr> <chr> 
##  1        0   BR1        0.055 RPMI_HG001   RPMI  HG001 
##  2        1   BR1        0.156 RPMI_HG001   RPMI  HG001 
##  3        2   BR1        0.38  RPMI_HG001   RPMI  HG001 
##  4        2.3 BR1        0.48  RPMI_HG001   RPMI  HG001 
##  5        3   BR1        0.66  RPMI_HG001   RPMI  HG001 
##  6        4   BR1        0.73  RPMI_HG001   RPMI  HG001 
##  7        5   BR1        0.8   RPMI_HG001   RPMI  HG001 
##  8        6   BR1        0.84  RPMI_HG001   RPMI  HG001 
##  9        7   BR1        0.91  RPMI_HG001   RPMI  HG001 
## 10        8   BR1        0.98  RPMI_HG001   RPMI  HG001 
## # … with 122 more rows
…
   #if you want just a bioreplicate aggregates plot with mean and SD we first have to summarize our tibble by using the mean and SD over bioreplicates
growth_tibble_summary <- growth_tibble %>%
  group_by(`Zeit (h)`,media,strain) %>%
  summarise(mean_OD=mean(OD,na.rm=T),SD_OD=sd(OD,na.rm=T)) %>%
  ungroup() %>% 
  unite(media,strain,col="media_strain",sep = "_",remove = F)
  
growth_tibble_summary

## # A tibble: 44 x 6
##    `Zeit (h)` media_strain    media strain     mean_OD    SD_OD
##         <dbl> <chr>           <chr> <chr>        <dbl>    <dbl>
##  1        0   RPMI_HG001      RPMI  HG001       0.057  0.00173 
##  2        0   RPMI_rho_mutant RPMI  rho_mutant  0.053  0.00173 
##  3        0   TSB_HG001       TSB   HG001       0.0523 0.000577
##  4        0   TSB_rho_mutant  TSB   rho_mutant  0.0543 0.00551 
##  5        1   RPMI_HG001      RPMI  HG001       0.154  0.00173 
##  6        1   RPMI_rho_mutant RPMI  rho_mutant  0.139  0.00751 
##  7        1   TSB_HG001       TSB   HG001       0.216  0.0183  
##  8        1   TSB_rho_mutant  TSB   rho_mutant  0.252  0.0100  
##  9        1.3 TSB_HG001       TSB   HG001       0.46   0.04    
## 10        1.3 TSB_rho_mutant  TSB   rho_mutant  0.493  0.0231  
## # … with 34 more rows
…
#now we will combine final_plot_label_data and sampling_times by media and `Zeit (h)` using dplyr::left_join()

final_plot_label_data<-left_join(x = final_plot_label_data,y = sampling_times,by = c("Zeit (h)","media"))
final_plot_label_data

## # A tibble: 22 x 4
## # Groups:   media [2]
##    media `Zeit (h)` OD_label sampling_time_point
##    <chr>      <dbl>    <dbl> <chr>              
##  1 RPMI         0     0.0587 <NA>               
##  2 RPMI         1     0.162  <NA>               
##  3 RPMI         2     0.397  exp.               
##  4 RPMI         2.3   0.478  <NA>               
##  5 RPMI         3     0.671  trans.             
##  6 RPMI         4     0.746  early stat.        
##  7 RPMI         5     0.811  <NA>               
##  8 RPMI         6     0.874  <NA>               
##  9 RPMI         7     0.960  <NA>               
## 10 RPMI         8     1.01   late stat.         
## # … with 12 more rows
…
statistical testing

To test for statistical significant differences we use the ggpubr (publication ready plots) package (ggpubr package) which is extremly powerful and easy to use. (online examples - ggpubr)

suppressMessages(library(ggpubr)) #load ggpubr package

#use compare_means() function from ggpubr package

#since ggpubr has problems with " " etc. in column name we rename the time column to "time_in_h"
growth_tibble_col_formatted <- growth_tibble %>% rename(time_in_h = `Zeit (h)`) #rename() function --> rename column header
#check result
  growth_tibble_col_formatted

## # A tibble: 132 x 6
##    time_in_h replicates    OD media_strain media strain
##        <dbl> <chr>      <dbl> <chr>        <chr> <chr> 
##  1       0   BR1        0.055 RPMI_HG001   RPMI  HG001 
##  2       1   BR1        0.156 RPMI_HG001   RPMI  HG001 
##  3       2   BR1        0.38  RPMI_HG001   RPMI  HG001 
##  4       2.3 BR1        0.48  RPMI_HG001   RPMI  HG001 
##  5       3   BR1        0.66  RPMI_HG001   RPMI  HG001 
##  6       4   BR1        0.73  RPMI_HG001   RPMI  HG001 
##  7       5   BR1        0.8   RPMI_HG001   RPMI  HG001 
##  8       6   BR1        0.84  RPMI_HG001   RPMI  HG001 
##  9       7   BR1        0.91  RPMI_HG001   RPMI  HG001 
## 10       8   BR1        0.98  RPMI_HG001   RPMI  HG001 
## # … with 122 more rows

#now compare means with a t-test
growth_tibble_stats <- compare_means(data = growth_tibble_col_formatted,formula = OD ~ media_strain,method = "t.test",p.adjust.method = "BH",group.by = "time_in_h")
        #formula ....   formula of the form x ~ group where x is a numeric variable giving the data values and group is a factor with one or multiple levels                         giving the corresponding groups. For example, formula = TP53 ~ cancer_group.
#look at stats
growth_tibble_stats

## # A tibble: 58 x 9
##    time_in_h .y.   group1     group2           p  p.adj p.format p.signif method
##        <dbl> <chr> <chr>      <chr>        <dbl>  <dbl> <chr>    <chr>    <chr> 
##  1         0 OD    RPMI_HG001 RPMI_rho_… 0.0474  0.067  0.04742  *        T-test
##  2         0 OD    RPMI_HG001 TSB_HG001  0.0326  0.051  0.03257  *        T-test
##  3         0 OD    RPMI_HG001 TSB_rho_m… 0.495   0.55   0.49545  ns       T-test
##  4         0 OD    RPMI_rho_… TSB_HG001  0.581   0.64   0.58131  ns       T-test
##  5         0 OD    RPMI_rho_… TSB_rho_m… 0.722   0.75   0.72212  ns       T-test
##  6         0 OD    TSB_HG001  TSB_rho_m… 0.594   0.64   0.59428  ns       T-test
##  7         1 OD    RPMI_HG001 RPMI_rho_… 0.0647  0.085  0.06473  ns       T-test
##  8         1 OD    RPMI_HG001 TSB_HG001  0.0268  0.044  0.02677  *        T-test
##  9         1 OD    RPMI_HG001 TSB_rho_m… 0.00274 0.0072 0.00274  **       T-test
## 10         1 OD    RPMI_rho_… TSB_HG001  0.00956 0.018  0.00956  **       T-test
## # … with 48 more rows
…
#add media column
growth_tibble_stats_TSB$media <- "TSB"
growth_tibble_stats_RPMI$media <- "RPMI"

#binding both tibbles together via rows
growth_tibble_stats_final <- bind_rows(growth_tibble_stats_TSB,growth_tibble_stats_RPMI)

#add OD max values per time
growth_tibble_stats_final <- left_join(growth_tibble_stats_final,final_plot_label_data %>% rename(time_in_h = `Zeit (h)`),by = c("media","time_in_h"))
#create new column and assign "stars" to adjusted p-value 
growth_tibble_stats_final$p.adj.signif<-stars.pval(growth_tibble_stats_final$p.adj)

growth_tibble_stats_final

## # A tibble: 22 x 13
##    time_in_h .y.   group1 group2       p p.adj p.format p.signif method media
##        <dbl> <chr> <chr>  <chr>    <dbl> <dbl> <chr>    <chr>    <chr>  <chr>
##  1       0   OD    HG001  rho_m… 0.594   0.73  0.5943   ns       T-test TSB  
##  2       1   OD    HG001  rho_m… 0.0561  0.12  0.0561   ns       T-test TSB  
##  3       1.3 OD    HG001  rho_m… 0.295   0.46  0.2949   ns       T-test TSB  
##  4       2   OD    HG001  rho_m… 0.362   0.5   0.3619   ns       T-test TSB  
##  5       3   OD    HG001  rho_m… 0.668   0.74  0.6682   ns       T-test TSB  
##  6       4   OD    HG001  rho_m… 0.753   0.75  0.7532   ns       T-test TSB  
##  7       5   OD    HG001  rho_m… 0.00753 0.083 0.0075   **       T-test TSB  
##  8       6   OD    HG001  rho_m… 0.0185  0.1   0.0185   *        T-test TSB  
##  9       7   OD    HG001  rho_m… 0.0998  0.18  0.0998   ns       T-test TSB  
## 10       8   OD    HG001  rho_m… 0.0362  0.1   0.0362   *        T-test TSB  
## # … with 12 more rows, and 3 more variables: OD_label <dbl>,
## #   sampling_time_point <chr>, p.adj.signif <chr>
…
