example3_DIA_MS_data_analysis_with_PECA.utf8
…
ROPECA_stats

## # A tibble: 43,120 x 9
##       slr      t   score     n        p    p.fdr PG.ProteinGroups group1  group2
##     <dbl>  <dbl>   <dbl> <dbl>    <dbl>    <dbl> <chr>            <chr>   <chr> 
##  1  0.877  0.802 0.454      12 3.71e- 1  7.80e-1 SAOUHSC_00001    HG_RPM… HG_RP…
##  2 -0.161 -0.359 0.770      15 9.90e- 1  1.00e+0 SAOUHSC_00002    HG_RPM… HG_RP…
##  3  1.12   1.04  0.384       4 3.08e- 1  6.93e-1 SAOUHSC_00003    HG_RPM… HG_RP…
##  4  1.41   1.45  0.269       6 1.05e- 1  3.36e-1 SAOUHSC_00004    HG_RPM… HG_RP…
##  5  0.861  1.11  0.371      20 1.17e- 1  3.66e-1 SAOUHSC_00005    HG_RPM… HG_RP…
##  6  0.482  0.941 0.458      31 3.19e- 1  7.11e-1 SAOUHSC_00006    HG_RPM… HG_RP…
##  7 -0.836 -1.40  0.267       2 2.15e- 1  5.57e-1 SAOUHSC_00007    HG_RPM… HG_RP…
##  8  0.159  0.193 0.902       2 9.49e- 1  1.00e+0 SAOUHSC_00008    HG_RPM… HG_RP…
##  9 -1.27  -2.09  0.0879     33 3.29e-10  1.75e-8 SAOUHSC_00009    HG_RPM… HG_RP…
## 10 -2.26  -5.14  0.00549     1 5.49e- 3  3.57e-2 SAOUHSC_00013    HG_RPM… HG_RP…
## # … with 43,110 more rows
…
