tidyverse__broom.utf8
…
gof

## # A tibble: 3 x 12
##   model r.squared adj.r.squared sigma statistic p.value    df logLik   AIC   BIC
##   <chr>     <dbl>         <dbl> <dbl>     <dbl>   <dbl> <int>  <dbl> <dbl> <dbl>
## 1 fit3      0.903         0.857  26.0      19.5 1.90e-8    11  -143.  310.  327.
## 2 fit1      0.693         0.683  38.6      67.7 3.48e-9     2  -161.  329.  333.
## 3 fit2      0.709         0.689  38.2      35.4 1.66e-8     3  -160.  329.  335.
## # … with 2 more variables: deviance <dbl>, df.residual <int>

augment() - adds informations about observations to a dataset

augment(fit)

## # A tibble: 150 x 10
##    Sepal.Width Petal.Length Petal.Width .fitted .se.fit  .resid   .hat .sigma
##          <dbl>        <dbl>       <dbl>   <dbl>   <dbl>   <dbl>  <dbl>  <dbl>
##  1         3.5          1.4         0.2    3.30  0.0532  0.200  0.0187  0.390
##  2         3            1.4         0.2    3.30  0.0532 -0.300  0.0187  0.390
##  3         3.2          1.3         0.2    3.33  0.0547 -0.126  0.0198  0.390
##  4         3.1          1.5         0.2    3.27  0.0526 -0.174  0.0182  0.390
##  5         3.6          1.4         0.2    3.30  0.0532  0.300  0.0187  0.390
##  6         3.9          1.7         0.4    3.30  0.0497  0.604  0.0163  0.387
##  7         3.4          1.4         0.3    3.34  0.0546  0.0637 0.0197  0.391
##  8         3.4          1.5         0.2    3.27  0.0526  0.126  0.0182  0.390
##  9         2.9          1.4         0.2    3.30  0.0532 -0.400  0.0187  0.389
## 10         3.1          1.5         0.1    3.24  0.0574 -0.138  0.0217  0.390
## # … with 140 more rows, and 2 more variables: .cooksd <dbl>, .std.resid <dbl>
