tidyverse__data_wrangling.utf8
…
                            peptide = c(paste(letters,"_1",sep=""),paste(letters,"_2",sep=""),paste(letters,"_3",sep="")),
                            Condition1_BR1 = rnorm(n = 78,mean = 100,sd =1),
                            Condition1_BR2 = rnorm(n = 78,mean = 110,sd =1),
                            Condition1_BR3 = rnorm(n = 78,mean = 105,sd =1),
                            Condition1_BR4 = rnorm(n = 78,mean = 115,sd =1),
                            Condition1_BR5 = rnorm(n = 78,mean = 115,sd =1),
                            Condition2_BR1 = rnorm(n = 78,mean = 100*4,sd =1),
                            Condition2_BR2 = rnorm(n = 78,mean = 110*4,sd =1),
                            Condition2_BR3 = rnorm(n = 78,mean = 105*4,sd =1),
                            Condition2_BR4 = rnorm(n = 78,mean = 115*4,sd =1),
                            Condition2_BR5 = rnorm(n = 78,mean = 115*4,sd =1)
)
normal_messy_data

## # A tibble: 78 x 12
##    protein peptide Condition1_BR1 Condition1_BR2 Condition1_BR3 Condition1_BR4
##    <chr>   <chr>            <dbl>          <dbl>          <dbl>          <dbl>
##  1 protei… a_1              101.            109.           106.           115.
##  2 protei… b_1              102.            109.           106.           115.
##  3 protei… c_1               99.6           111.           106.           113.
##  4 protei… d_1              102.            111.           104.           115.
##  5 protei… e_1               97.8           110.           105.           114.
##  6 protei… f_1              101.            109.           106.           114.
##  7 protei… g_1               98.7           110.           105.           116.
##  8 protei… h_1               99.2           111.           107.           113.
##  9 protei… i_1               98.2           110.           104.           114.
## 10 protei… j_1              100.            111.           106.           114.
## # … with 68 more rows, and 6 more variables: Condition1_BR5 <dbl>,
## #   Condition2_BR1 <dbl>, Condition2_BR2 <dbl>, Condition2_BR3 <dbl>,
## #   Condition2_BR4 <dbl>, Condition2_BR5 <dbl>

can be easily transformed to a tidy tibble using the reshape function of tidyr:

gather() to make things tidy (long data format)

normal_tidy_data <- normal_messy_data %>% 
                  gather(colnames(normal_messy_data)[-c(1:2)],key = "samples",value = "intensity")
normal_tidy_data

## # A tibble: 780 x 4
##    protein   peptide samples        intensity
##    <chr>     <chr>   <chr>              <dbl>
##  1 protein_1 a_1     Condition1_BR1     101. 
##  2 protein_1 b_1     Condition1_BR1     102. 
##  3 protein_1 c_1     Condition1_BR1      99.6
##  4 protein_1 d_1     Condition1_BR1     102. 
##  5 protein_1 e_1     Condition1_BR1      97.8
##  6 protein_1 f_1     Condition1_BR1     101. 
##  7 protein_1 g_1     Condition1_BR1      98.7
##  8 protein_1 h_1     Condition1_BR1      99.2
##  9 protein_1 i_1     Condition1_BR1      98.2
## 10 protein_1 j_1     Condition1_BR1     100. 
## # … with 770 more rows

Now we have some tidy data, which can be multidimensional. A back transformation is quiet easy but I would always recommend to include a column select() (less error prone)

spread() to make data wide again

select() select only column needed (see below)

normal_tidy_data %>% spread(key = "samples",value = "intensity")

## # A tibble: 78 x 12
##    protein peptide Condition1_BR1 Condition1_BR2 Condition1_BR3 Condition1_BR4
##    <chr>   <chr>            <dbl>          <dbl>          <dbl>          <dbl>
##  1 protei… a_1              101.            109.           106.           115.
##  2 protei… b_1              102.            109.           106.           115.
##  3 protei… c_1               99.6           111.           106.           113.
##  4 protei… d_1              102.            111.           104.           115.
##  5 protei… e_1               97.8           110.           105.           114.
##  6 protei… f_1              101.            109.           106.           114.
##  7 protei… g_1               98.7           110.           105.           116.
##  8 protei… h_1               99.2           111.           107.           113.
##  9 protei… i_1               98.2           110.           104.           114.
## 10 protei… j_1              100.            111.           106.           114.
## # … with 68 more rows, and 6 more variables: Condition1_BR5 <dbl>,
## #   Condition2_BR1 <dbl>, Condition2_BR2 <dbl>, Condition2_BR3 <dbl>,
## #   Condition2_BR4 <dbl>, Condition2_BR5 <dbl>

But first lets clean our tidy data by separate columns using separate() function

normal_tidy_data_cleaned <- normal_tidy_data %>% 
                            separate(col = "samples",into = c("condition","replicate"),sep = "_",remove = F)
normal_tidy_data_cleaned

## # A tibble: 780 x 6
##    protein   peptide samples        condition  replicate intensity
##    <chr>     <chr>   <chr>          <chr>      <chr>         <dbl>
##  1 protein_1 a_1     Condition1_BR1 Condition1 BR1           101. 
##  2 protein_1 b_1     Condition1_BR1 Condition1 BR1           102. 
##  3 protein_1 c_1     Condition1_BR1 Condition1 BR1            99.6
##  4 protein_1 d_1     Condition1_BR1 Condition1 BR1           102. 
##  5 protein_1 e_1     Condition1_BR1 Condition1 BR1            97.8
##  6 protein_1 f_1     Condition1_BR1 Condition1 BR1           101. 
##  7 protein_1 g_1     Condition1_BR1 Condition1 BR1            98.7
##  8 protein_1 h_1     Condition1_BR1 Condition1 BR1            99.2
##  9 protein_1 i_1     Condition1_BR1 Condition1 BR1            98.2
## 10 protein_1 j_1     Condition1_BR1 Condition1 BR1           100. 
## # … with 770 more rows

Lets reshape normal_tidy_data_cleaned to wide format using the same code used above

normal_tidy_data_cleaned %>% spread(key = "samples",value = "intensity")

## # A tibble: 780 x 14
##    protein peptide condition replicate Condition1_BR1 Condition1_BR2
##    <chr>   <chr>   <chr>     <chr>              <dbl>          <dbl>
##  1 protei… a_1     Conditio… BR1                 101.            NA 
##  2 protei… a_1     Conditio… BR2                  NA            109.
##  3 protei… a_1     Conditio… BR3                  NA             NA 
##  4 protei… a_1     Conditio… BR4                  NA             NA 
##  5 protei… a_1     Conditio… BR5                  NA             NA 
##  6 protei… a_1     Conditio… BR1                  NA             NA 
##  7 protei… a_1     Conditio… BR2                  NA             NA 
##  8 protei… a_1     Conditio… BR3                  NA             NA 
##  9 protei… a_1     Conditio… BR4                  NA             NA 
## 10 protei… a_1     Conditio… BR5                  NA             NA 
## # … with 770 more rows, and 8 more variables: Condition1_BR3 <dbl>,
## #   Condition1_BR4 <dbl>, Condition1_BR5 <dbl>, Condition2_BR1 <dbl>,
## #   Condition2_BR2 <dbl>, Condition2_BR3 <dbl>, Condition2_BR4 <dbl>,
## #   Condition2_BR5 <dbl>

MHH, something is wrong. Because a important column, which also describes the column in the wide format exists in the tidy format. The spread() function tries to match the rows with the addition replicate column resulting in the diagonal wide format error. It is important to use the above mentioned select() function to generete the wide format (2 dimension: rows (protein, peptide) and column (samples) with a value).

normal_tidy_data_cleaned %>% dplyr::select(protein,peptide,samples,intensity)

## # A tibble: 780 x 4
##    protein   peptide samples        intensity
##    <chr>     <chr>   <chr>              <dbl>
##  1 protein_1 a_1     Condition1_BR1     101. 
##  2 protein_1 b_1     Condition1_BR1     102. 
##  3 protein_1 c_1     Condition1_BR1      99.6
##  4 protein_1 d_1     Condition1_BR1     102. 
##  5 protein_1 e_1     Condition1_BR1      97.8
##  6 protein_1 f_1     Condition1_BR1     101. 
##  7 protein_1 g_1     Condition1_BR1      98.7
##  8 protein_1 h_1     Condition1_BR1      99.2
##  9 protein_1 i_1     Condition1_BR1      98.2
## 10 protein_1 j_1     Condition1_BR1     100. 
## # … with 770 more rows

normal_tidy_data_cleaned %>% 
  dplyr::select(protein,peptide,samples,intensity) %>%
  spread(key = "samples",value = "intensity")

## # A tibble: 78 x 12
##    protein peptide Condition1_BR1 Condition1_BR2 Condition1_BR3 Condition1_BR4
##    <chr>   <chr>            <dbl>          <dbl>          <dbl>          <dbl>
##  1 protei… a_1              101.            109.           106.           115.
##  2 protei… b_1              102.            109.           106.           115.
##  3 protei… c_1               99.6           111.           106.           113.
##  4 protei… d_1              102.            111.           104.           115.
##  5 protei… e_1               97.8           110.           105.           114.
##  6 protei… f_1              101.            109.           106.           114.
##  7 protei… g_1               98.7           110.           105.           116.
##  8 protei… h_1               99.2           111.           107.           113.
##  9 protei… i_1               98.2           110.           104.           114.
## 10 protei… j_1              100.            111.           106.           114.
## # … with 68 more rows, and 6 more variables: Condition1_BR5 <dbl>,
## #   Condition2_BR1 <dbl>, Condition2_BR2 <dbl>, Condition2_BR3 <dbl>,
## #   Condition2_BR4 <dbl>, Condition2_BR5 <dbl>
…
always use ungroup() function to ungroup data afterwards, otherwise grouping is kept

#Average, SD, CV over Replicates per peptide/protein
normal_tidy_data_cleaned_summary <- normal_tidy_data_cleaned %>%
  group_by(condition,protein,peptide) %>% 
  summarise(mean_peptide_intensity = mean(intensity),
            sd_peptide_intensity = sd(intensity),
            cv_peptide_intensity = sd(intensity)/mean(intensity)) %>% 
  ungroup()
normal_tidy_data_cleaned_summary

## # A tibble: 156 x 6
##    condition  protein peptide mean_peptide_in… sd_peptide_inte… cv_peptide_inte…
##    <chr>      <chr>   <chr>              <dbl>            <dbl>            <dbl>
##  1 Condition1 protei… a_1                 109.             6.13           0.0561
##  2 Condition1 protei… b_1                 109.             5.42           0.0496
##  3 Condition1 protei… c_1                 109.             6.14           0.0564
##  4 Condition1 protei… d_1                 110.             6.37           0.0581
##  5 Condition1 protei… e_1                 108.             7.42           0.0684
##  6 Condition1 protei… f_1                 109.             5.77           0.0530
##  7 Condition1 protei… g_1                 108.             6.88           0.0635
##  8 Condition1 protei… h_1                 109.             6.02           0.0553
##  9 Condition1 protei… i_1                 108.             6.76           0.0626
## 10 Condition1 protei… j_1                 109.             6.44           0.0589
## # … with 146 more rows
…
adding ranks

Now we would like to add ranks for peptide-intensity per protein and condition

#rank peptides per protein and condition
# higher rank number = higher intensity
normal_tidy_data_cleaned_summary %>% 
  group_by(protein,condition) %>% 
  mutate(rank = dense_rank(mean_peptide_intensity))

## # A tibble: 156 x 7
## # Groups:   protein, condition [6]
##    condition protein peptide mean_peptide_in… sd_peptide_inte… cv_peptide_inte…
##    <chr>     <chr>   <chr>              <dbl>            <dbl>            <dbl>
##  1 Conditio… protei… a_1                 109.             6.13           0.0561
##  2 Conditio… protei… b_1                 109.             5.42           0.0496
##  3 Conditio… protei… c_1                 109.             6.14           0.0564
##  4 Conditio… protei… d_1                 110.             6.37           0.0581
##  5 Conditio… protei… e_1                 108.             7.42           0.0684
##  6 Conditio… protei… f_1                 109.             5.77           0.0530
##  7 Conditio… protei… g_1                 108.             6.88           0.0635
##  8 Conditio… protei… h_1                 109.             6.02           0.0553
##  9 Conditio… protei… i_1                 108.             6.76           0.0626
## 10 Conditio… protei… j_1                 109.             6.44           0.0589
## # … with 146 more rows, and 1 more variable: rank <int>
…
#With the grouped equivalent:
starwars %>% group_by(gender) %>% filter(mass > mean(mass, na.rm = TRUE))

## # A tibble: 25 x 13
## # Groups:   gender [3]
##    name  height  mass hair_color skin_color eye_color birth_year gender
##    <chr>  <int> <dbl> <chr>      <chr>      <chr>          <dbl> <chr> 
##  1 C-3PO    167    75 <NA>       gold       yellow         112   <NA>  
##  2 Dart…    202   136 none       white      yellow          41.9 male  
##  3 Owen…    178   120 brown, gr… light      blue            52   male  
##  4 Beru…    165    75 brown      light      blue            47   female
##  5 Bigg…    183    84 black      light      brown           24   male  
##  6 Anak…    188    84 blond      fair       blue            41.9 male  
##  7 Chew…    228   112 brown      unknown    blue           200   male  
##  8 Jek …    180   110 brown      fair       blue            NA   male  
##  9 Bossk    190   113 none       green      red             53   male  
## 10 Ackb…    180    83 none       brown mot… orange          41   male  
## # … with 15 more rows, and 5 more variables: homeworld <chr>, species <chr>,
## #   films <list>, vehicles <list>, starships <list>
